{
    "packages": [
	{
	    "name": "vega",
	    "maintainer": "C-DAC",
	    "websiteURL": "https://vegaprocessors.in/",
	    "email": "", 
	    "help": {
		"online": "https://cdac-vega.gitlab.io/"
	    },
	    "platforms": [
		{
		    "category": "C-DAC",
		    "name": "VEGA ARIES Boards",
		    "version": "1.0.0",
		    "url": "https://gitlab.com/riscv-vega/vega-bsp/-/archive/aa7ccc12f7a736132e2fee6cbe4ebce9582aa216/vega-bsp-aa7ccc12f7a736132e2fee6cbe4ebce9582aa216.tar.bz2",
		    "checksum": "SHA-256:65ea4245a2be218245b980346126ba389657a4834bc90c1121bcba04ac9cf37b",
		    "archiveFileName": "vega-bsp-main.tar.bz2",
		    "size": "68112",
		    "architecture": "riscv",
		    "boards": [
			{"name": "ARIES v2"},
			{"name": "ARIES Micro v1"},
			{"name": "ARIES IoT v1"},
			{"name": "ARIES v3"} 
		    ], 
		    "toolsDependencies": [
			{
			    "packager": "vega",
			    "version": "001",
			    "name": "riscv64-vega-elf-gcc"
			},
			{
			    "packager": "vega",
			    "version": "001",
			    "name": "vegaxmodem"
			}
		    ]
		},
		{
		    "category": "C-DAC",
		    "name": "VEGA ARIES Boards",
		    "version": "1.0.1",
		    "url": "https://gitlab.com/riscv-vega/vega-bsp/-/archive/d6411b215535fed7d5185bb0622547b180836b23/vega-bsp-d6411b215535fed7d5185bb0622547b180836b23.tar.bz2",
		    "checksum": "SHA-256:23ef09c8039fe71d1ebedcaf72a454007286acb667d27de9e1bcb09bb13f459b",
		    "archiveFileName": "vega-bsp-main.tar.bz2",
		    "size": "437631",
		    "architecture": "riscv",
		    "boards": [
			{"name": "ARIES v2"},
			{"name": "ARIES Micro v1"},
			{"name": "ARIES IoT v1"},
			{"name": "ARIES v3"} 
		    ], 
		    "toolsDependencies": [
			{
				"packager": "vega",
			    "version": "001",
			    "name": "riscv64-vega-elf-gcc"
			},
			{
			    "packager": "vega",
			    "version": "001",
			    "name": "vegaxmodem"
			},
			{
			    "packager": "vega",
			    "version": "001",
			    "name": "vegaflasher"
			}
		    ]
		},
		{
		    "category": "C-DAC",
		    "name": "VEGA ARIES Boards",
		    "version": "1.0.2",
		    "url": "https://gitlab.com/riscv-vega/vega-bsp/-/archive/a9d5ca938f46e6e5866de17635199f1b9deba99d/vega-bsp-a9d5ca938f46e6e5866de17635199f1b9deba99d.tar.bz2",
		    "checksum": "SHA-256:ce590d372360f88577e7aa26268d679925e04a03de18473191be2ef015ffe441",
		    "archiveFileName": "vega-bsp-a9d5ca938f46e6e5866de17635199f1b9deba99d.tar.bz2",
		    "size": "445477",
		    "architecture": "riscv",
		    "boards": [
			{"name": "ARIES v2"},
			{"name": "ARIES Micro v1"},
			{"name": "ARIES IoT v1"},
			{"name": "ARIES v3"} 
		    ], 
		    "toolsDependencies": [
			{
			    "packager": "vega",
			    "version": "001",
			    "name": "riscv64-vega-elf-gcc"
			},
			{
			    "packager": "vega",
			    "version": "001",
			    "name": "vegaxmodem"
			},
			{
			    "packager": "vega",
			    "version": "001",
			    "name": "vegaflasher"
			}
		    ]
		},
		{
		    "category": "C-DAC",
		    "name": "VEGA ARIES Boards",
		    "version": "1.0.3",
		    "url": "https://gitlab.com/riscv-vega/vega-bsp/-/archive/9e32309399b2fddd792bff4a639a95019ad7a425/vega-bsp-9e32309399b2fddd792bff4a639a95019ad7a425.tar.bz2",
		    "checksum": "SHA-256:9876c8489aa77ca7250c22f3f403ad4bb74e6f7f8696086d69413e21536aa5af",
		    "archiveFileName": "vega-bsp-9e32309399b2fddd792bff4a639a95019ad7a425.tar.bz2",
		    "size": "451846",
		    "architecture": "riscv",
		    "boards": [
			{"name": "ARIES v2"},
			{"name": "ARIES Micro v1"},
			{"name": "ARIES IoT v1"},
			{"name": "ARIES v3"} 
		    ], 
		    "toolsDependencies": [
			{
			    "packager": "vega",
			    "version": "001",
			    "name": "riscv64-vega-elf-gcc"
			},
			{
			    "packager": "vega",
			    "version": "002",
			    "name": "vegaxmodem"
			},
			{
			    "packager": "vega",
			    "version": "002",
			    "name": "vegaflasher"
			}
		    ]
		},
		{
		    "category": "C-DAC",
		    "name": "VEGA ARIES Boards",
		    "version": "1.0.4",
		    "url": "https://gitlab.com/riscv-vega/vega-bsp/-/archive/9e32309399b2fddd792bff4a639a95019ad7a425/vega-bsp-9e32309399b2fddd792bff4a639a95019ad7a425.tar.bz2",
		    "checksum": "SHA-256:9876c8489aa77ca7250c22f3f403ad4bb74e6f7f8696086d69413e21536aa5af",
		    "archiveFileName": "vega-bsp-9e32309399b2fddd792bff4a639a95019ad7a425.tar.bz2",
		    "size": "451846",
		    "architecture": "riscv",
		    "boards": [
			{"name": "ARIES v2"},
			{"name": "ARIES Micro v1"},
			{"name": "ARIES IoT v1"},
			{"name": "ARIES v3"} 
		    ], 
		    "toolsDependencies": [
			{
			    "packager": "vega",
			    "version": "001",
			    "name": "riscv64-vega-elf-gcc"
			},
			{
			    "packager": "vega",
			    "version": "002",
			    "name": "vegaxmodem"
			},
			{
			    "packager": "vega",
			    "version": "002",
			    "name": "vegaflasher"
			}
		    ]
		},
		{
		    "category": "C-DAC",
		    "name": "VEGA ARIES Boards",
		    "version": "1.0.5",
		    "url": "https://gitlab.com/riscv-vega/vega-bsp/-/archive/44236144d7ec05474340c47f255303c31122adcc/vega-bsp-44236144d7ec05474340c47f255303c31122adcc.tar.bz2",
		    "checksum": "SHA-256:de1ed1af22b5faf553ba7f1c963d92eb0b1f66018dc703db49e67c20d872543c",
		    "archiveFileName": "vega-bsp-44236144d7ec05474340c47f255303c31122adcc.tar.bz2",
		    "size": "432111",
		    "architecture": "riscv",
		    "boards": [
			{"name": "ARIES v2"},
			{"name": "ARIES Micro v1"},
			{"name": "ARIES IoT v1"},
			{"name": "ARIES v3"} 
		    ], 
		    "toolsDependencies": [
			{
			    "packager": "vega",
			    "version": "001",
			    "name": "riscv64-vega-elf-gcc"
			},
			{
			    "packager": "vega",
			    "version": "002",
			    "name": "vegaxmodem"
			},
			{
			    "packager": "vega",
			    "version": "002",
			    "name": "vegaflasher"
			}
		    ]
		},
		{
		    "category": "C-DAC",
		    "name": "VEGA ARIES Boards",
		    "version": "1.0.6",
		    "url": "https://gitlab.com/riscv-vega/vega-bsp/-/archive/2d9750226cea7209f7e13b6422db96378439540f/vega-bsp-2d9750226cea7209f7e13b6422db96378439540f.tar.bz2",
		    "checksum": "SHA-256:22d3d0e6c0c18a25f2bdfb9192387df5a06c86e344253713f6120730b424746a",
		    "archiveFileName": "vega-bsp-2d9750226cea7209f7e13b6422db96378439540f.tar.bz2",
		    "size": "475945",
		    "architecture": "riscv",
		    "boards": [
			{"name": "ARIES v2"},
			{"name": "ARIES Micro v1"},
			{"name": "ARIES IoT v1"},
			{"name": "ARIES v3"} 
		    ], 
		    "toolsDependencies": [
			{
			    "packager": "vega",
			    "version": "001",
			    "name": "riscv64-vega-elf-gcc"
			},
			{
			    "packager": "vega",
			    "version": "002",
			    "name": "vegaxmodem"
			},
			{
			    "packager": "vega",
			    "version": "002",
			    "name": "vegaflasher"
			}
		    ]
		}
	    ],
	    "tools": [
		{
		    "version": "001",
		    "name": "riscv64-vega-elf-gcc",
		    "systems": [
			{
			    "url": "https://gitlab.com/riscv-vega/vega-tools/-/archive/main/vega-tools-main.tar.bz2",
			    "checksum": "SHA-256:e2a7a87e60f8c21870405315887a4c67a1f90bc5d4ae71ca53e1d056a9510c32",
			    "host": "x86_64-pc-linux-gnu",
			    "archiveFileName": "vega-tools-main.tar.bz2",
			    "size": "395389010"
			},
			{
			    "url": "https://gitlab.com/riscv-vega/vega-tools-windows/-/archive/main/vega-tools-windows-main.tar.bz2",
			    "checksum": "SHA-256:18c05e99265ed13cb07fe53fe1acefcc08bc9fe6c1223b72077306c306161b0d",
			    "host": "i686-mingw32",
			    "archiveFileName": "vega-tools-windows-main.tar.bz2",
			    "size": "73681978"
			},
			{
			    "url": "https://gitlab.com/riscv-vega/vega-tools-windows/-/archive/main/vega-tools-windows-main.tar.bz2",
			    "checksum": "SHA-256:18c05e99265ed13cb07fe53fe1acefcc08bc9fe6c1223b72077306c306161b0d",
			    "host": "x86_64-mingw32",
			    "archiveFileName": "vega-tools-windows-main.tar.bz2",
			    "size": "73681978"
			}
		    ]
		},
		{
			"version": "001",
		    "name": "vegaxmodem",
		    "systems": [
			{
			    "url": "https://gitlab.com/riscv-vega/vega-xmodem/-/archive/642f4bec3a4b4585b510dfe8b08a7ff105402bc9/vega-xmodem-642f4bec3a4b4585b510dfe8b08a7ff105402bc9.tar.bz2",
			    "checksum": "SHA-256:ce55e4ba99672b1ec3de31a3b86cf24c093684995e74a5626a259e1721b4d395",
			    "host": "x86_64-pc-linux-gnu",
			    "archiveFileName": "vega-xmodem-642f4bec3a4b4585b510dfe8b08a7ff105402bc9.tar.bz2",
			    "size": "7897"
			},
			{
			    "url": "https://gitlab.com/riscv-vega/vega-xmodem-windows/-/archive/e17ecc22dee72e2fe74738da3c1e6a8b7efd2ab8/vega-xmodem-windows-e17ecc22dee72e2fe74738da3c1e6a8b7efd2ab8.tar.bz2",
			    "checksum": "SHA-256:5f7dc67074ba90d1f922c6164487f96c3dd5422baec33ecde7ea0ecfdb519c2e",
			    "host": "i686-mingw32",
			    "archiveFileName": "vega-xmodem-windows-e17ecc22dee72e2fe74738da3c1e6a8b7efd2ab8.tar.bz2",
			    "size": "7060368"
			},
			{
			    "url": "https://gitlab.com/riscv-vega/vega-xmodem-windows/-/archive/e17ecc22dee72e2fe74738da3c1e6a8b7efd2ab8/vega-xmodem-windows-e17ecc22dee72e2fe74738da3c1e6a8b7efd2ab8.tar.bz2",
			    "checksum": "SHA-256:5f7dc67074ba90d1f922c6164487f96c3dd5422baec33ecde7ea0ecfdb519c2e",
			    "host": "x86_64-mingw32",
			    "archiveFileName": "vega-xmodem-windows-e17ecc22dee72e2fe74738da3c1e6a8b7efd2ab8.tar.bz2",
			    "size": "7060368"
			}
		    ]
		},
		{
			"version": "002",
		    "name": "vegaxmodem",
		    "systems": [
			{
			    "url": "https://gitlab.com/riscv-vega/vega-xmodem/-/archive/663a9fd0e97e870edab280b37274c9a6a1528a75/vega-xmodem-663a9fd0e97e870edab280b37274c9a6a1528a75.tar.bz2",
			    "checksum": "SHA-256:f89cc4bbf36e1eceab5617fdcdd153ec0a9aabf89cc1cac7003ce6e8b9192064",
			    "host": "x86_64-pc-linux-gnu",
			    "archiveFileName": "vega-xmodem-663a9fd0e97e870edab280b37274c9a6a1528a75.tar.bz2",
			    "size": "369500"
			},
			{
			    "url": "https://gitlab.com/riscv-vega/vega-xmodem-windows/-/archive/52083c47d57a10a13f672e0e45784d3a1b6f0ae9/vega-xmodem-windows-52083c47d57a10a13f672e0e45784d3a1b6f0ae9.tar.bz2",
			    "checksum": "SHA-256:7d43434d3db048953f6464fc885d577dc909d2f45763b166e9741292e69f76a1",
			    "host": "i686-mingw32",
			    "archiveFileName": "vega-xmodem-windows-52083c47d57a10a13f672e0e45784d3a1b6f0ae9.tar.bz2",
			    "size": "12760405"
			},
			{
			    "url": "https://gitlab.com/riscv-vega/vega-xmodem-windows/-/archive/52083c47d57a10a13f672e0e45784d3a1b6f0ae9/vega-xmodem-windows-52083c47d57a10a13f672e0e45784d3a1b6f0ae9.tar.bz2",
			    "checksum": "SHA-256:7d43434d3db048953f6464fc885d577dc909d2f45763b166e9741292e69f76a1",
			    "host": "x86_64-mingw32",
			    "archiveFileName": "vega-xmodem-windows-52083c47d57a10a13f672e0e45784d3a1b6f0ae9.tar.bz2",
			    "size": "12760405"
			}
		    ]
		},
		{
			"version": "001",
		    "name": "vegaflasher",
		    "systems": [
			{
			    "url": "https://gitlab.com/riscv-vega/vega-flasher/-/archive/f460bc312e409025b99f45bcd89f518d4a3a1a7d/vega-flasher-f460bc312e409025b99f45bcd89f518d4a3a1a7d.tar.bz2",
			    "checksum": "SHA-256:1f59f48554e6a1082bbb8f8f92045e9de9e2b839e8b30fb843eabf6e602aa3f1",
			    "host": "x86_64-pc-linux-gnu",
			    "archiveFileName": "vega-flasher-f460bc312e409025b99f45bcd89f518d4a3a1a7d.tar.bz2",
			    "size": "8037"
			},
			{
			    "url": "https://gitlab.com/riscv-vega/vega-flasher-windows/-/archive/e63bec13649de7b33c681932f777568b645da949/vega-flasher-windows-e63bec13649de7b33c681932f777568b645da949.tar.bz2",
			    "checksum": "SHA-256:1914a14bb7ffc1c15b8e321eacd49632767e05b84d12b27b9ff06ada778dcf02",
			    "host": "x86_64-mingw32",
			    "archiveFileName": "vega-flasher-windows-e63bec13649de7b33c681932f777568b645da949.tar.bz2",
			    "size": "7070918"
			},
			{
			    "url": "https://gitlab.com/riscv-vega/vega-flasher-windows/-/archive/e63bec13649de7b33c681932f777568b645da949/vega-flasher-windows-e63bec13649de7b33c681932f777568b645da949.tar.bz2",
			    "checksum": "SHA-256:1914a14bb7ffc1c15b8e321eacd49632767e05b84d12b27b9ff06ada778dcf02",
			    "host": "i686-mingw32",
			    "archiveFileName": "vega-flasher-windows-e63bec13649de7b33c681932f777568b645da949.tar.bz2",
			    "size": "7070918"
			}
		    ]
		},
		{
			"version": "002",
		    "name": "vegaflasher",
		    "systems": [
			{
			    "url": "https://gitlab.com/riscv-vega/vega-flasher/-/archive/788b4f95439ffdbadeba52dddd522b7da4c7a452/vega-flasher-788b4f95439ffdbadeba52dddd522b7da4c7a452.tar.bz2",
			    "checksum": "SHA-256:99a096a54f31148434d730c0dc08bd36149f4755c2709edf70f198b9ae124ff3",
			    "host": "x86_64-pc-linux-gnu",
			    "archiveFileName": "vega-flasher-788b4f95439ffdbadeba52dddd522b7da4c7a452.tar.bz2",
			    "size": "369545"
			},
			{
			    "url": "https://gitlab.com/riscv-vega/vega-flasher-windows/-/archive/f63bea20a8774d6e777545e4b7cfdace89cfd44b/vega-flasher-windows-f63bea20a8774d6e777545e4b7cfdace89cfd44b.tar.bz2",
			    "checksum": "SHA-256:67a91574591e1ed6b8639202f976e7b08c7dd4392ae6836c33bb4c8807fcf88b",
			    "host": "x86_64-mingw32",
			    "archiveFileName": "vega-flasher-windows-f63bea20a8774d6e777545e4b7cfdace89cfd44b.tar.bz2",
			    "size": "12770385"
			},
			{
			    "url": "https://gitlab.com/riscv-vega/vega-flasher-windows/-/archive/f63bea20a8774d6e777545e4b7cfdace89cfd44b/vega-flasher-windows-f63bea20a8774d6e777545e4b7cfdace89cfd44b.tar.bz2",
			    "checksum": "SHA-256:67a91574591e1ed6b8639202f976e7b08c7dd4392ae6836c33bb4c8807fcf88b",
			    "host": "i686-mingw32",
			    "archiveFileName": "vega-flasher-windows-f63bea20a8774d6e777545e4b7cfdace89cfd44b.tar.bz2",
			    "size": "12770385"
			}
		    ]
		}
	    ]
	}
    ]
}

